Add row, column, row type, and column type metadata — add_row_col_meta • IEATools
…
    Details

    If .tidy_iea_df already contains all of rownames, colnames, rowtypes, and coltypes,
.tidy_iea_df is returned without modification.
If .tidy_iea_df contains some but not all of rownames, colnames, rowtypes, or coltypes,
an error is returned.

    Examples

library(dplyr)
load_tidy_iea_df() %>% 
  add_psut_matnames() %>%
  add_row_col_meta()
#> # A tibble: 403 × 16
#>    Country Method EnergyType LastStage  Year LedgerSide FlowAggregationPoint    
#>    <chr>   <chr>  <chr>      <chr>     <dbl> <chr>      <chr>                   
#>  1 GHA     PCM    E          Final      1971 Supply     Total primary energy su…
#>  2 GHA     PCM    E          Final      2000 Supply     Total primary energy su…
#>  3 GHA     PCM    E          Final      1971 Supply     Total primary energy su…
#>  4 GHA     PCM    E          Final      2000 Supply     Total primary energy su…
#>  5 GHA     PCM    E          Final      1971 Supply     Total primary energy su…
#>  6 GHA     PCM    E          Final      2000 Supply     Total primary energy su…
#>  7 GHA     PCM    E          Final      2000 Supply     Total primary energy su…
#>  8 GHA     PCM    E          Final      2000 Supply     Total primary energy su…
#>  9 GHA     PCM    E          Final      1971 Supply     Total primary energy su…
#> 10 GHA     PCM    E          Final      2000 Supply     Total primary energy su…
#> # ℹ 393 more rows
#> # ℹ 9 more variables: Flow <chr>, Product <chr>, Unit <chr>, Edot <dbl>,
#> #   matnames <chr>, rownames <chr>, colnames <chr>, rowtypes <chr>,
#> #   coltypes <chr>
…
