Aggregates IEA regions based on a user-defined aggregation table. — aggregate_regions • IEATools
…
    Value

    A .tidy_iea_df that contains the data of the input .tidy_iea_df aggregated by regions as specified in the user-defined
country aggregation table provided.

    Examples

# Performs the regional aggregation using the default IEA to Exiobase mapping 
# for IEA data 2019, using the example `.tidy_iea_df` 
# returned by the `load_tidy_iea_df()` function when run without argument.
aggregate_regions(.tidy_iea_df = load_tidy_iea_df())
#> # A tibble: 403 × 11
#>    Country    Method EnergyType LastStage  Year LedgerSide  FlowAggregationPoint
#>    <chr>      <chr>  <chr>      <chr>     <dbl> <chr>       <chr>               
#>  1 RoW Africa PCM    E          Final      1971 Consumption Industry            
#>  2 RoW Africa PCM    E          Final      1971 Consumption Industry            
#>  3 RoW Africa PCM    E          Final      1971 Consumption Industry            
#>  4 RoW Africa PCM    E          Final      1971 Consumption Industry            
#>  5 RoW Africa PCM    E          Final      1971 Consumption Industry            
#>  6 RoW Africa PCM    E          Final      1971 Consumption Industry            
#>  7 RoW Africa PCM    E          Final      1971 Consumption Industry            
#>  8 RoW Africa PCM    E          Final      1971 Consumption Non-energy use      
#>  9 RoW Africa PCM    E          Final      1971 Consumption Other               
#> 10 RoW Africa PCM    E          Final      1971 Consumption Other               
#> # ℹ 393 more rows
#> # ℹ 4 more variables: Flow <chr>, Product <chr>, Unit <chr>, Edot <dbl>
# Performs the regional aggregation using the default IEA to Exiobase mapping 
# for IEA data 2020, using the example `.tidy_iea_df` 
# returned by the `load_tidy_iea_df()` function when run without argument.
aggregate_regions(.tidy_iea_df = load_tidy_iea_df(), 
                  aggregation_table = read_aggregation_region_table(
                    default_aggregation_region_table_path(2020)))
#> # A tibble: 403 × 11
#>    Country    Method EnergyType LastStage  Year LedgerSide  FlowAggregationPoint
#>    <chr>      <chr>  <chr>      <chr>     <dbl> <chr>       <chr>               
#>  1 RoW Africa PCM    E          Final      1971 Consumption Industry            
#>  2 RoW Africa PCM    E          Final      1971 Consumption Industry            
#>  3 RoW Africa PCM    E          Final      1971 Consumption Industry            
#>  4 RoW Africa PCM    E          Final      1971 Consumption Industry            
#>  5 RoW Africa PCM    E          Final      1971 Consumption Industry            
#>  6 RoW Africa PCM    E          Final      1971 Consumption Industry            
#>  7 RoW Africa PCM    E          Final      1971 Consumption Industry            
#>  8 RoW Africa PCM    E          Final      1971 Consumption Non-energy use      
#>  9 RoW Africa PCM    E          Final      1971 Consumption Other               
#> 10 RoW Africa PCM    E          Final      1971 Consumption Other               
#> # ℹ 393 more rows
#> # ℹ 4 more variables: Flow <chr>, Product <chr>, Unit <chr>, Edot <dbl>
…
