Fixed Other non-OECD Americas Charcoal production 1971–2010 — Fixed_OAMR_cpp • IEATools
…
    Usage

Fixed_OAMR_cpp

    Format

    A data frame with 11 columns.

    Examples

Fixed_OAMR_cpp
#> # A tibble: 120 × 11
#>    Country Method EnergyType LastStage LedgerSide FlowAggregationPoint     Flow 
#>    <chr>   <chr>  <chr>      <chr>     <chr>      <chr>                    <chr>
#>  1 OAMR    PCM    E          Final     Supply     Total primary energy su… Prod…
#>  2 OAMR    PCM    E          Final     Supply     Total primary energy su… Prod…
#>  3 OAMR    PCM    E          Final     Supply     Total primary energy su… Prod…
#>  4 OAMR    PCM    E          Final     Supply     Total primary energy su… Prod…
#>  5 OAMR    PCM    E          Final     Supply     Total primary energy su… Prod…
#>  6 OAMR    PCM    E          Final     Supply     Total primary energy su… Prod…
#>  7 OAMR    PCM    E          Final     Supply     Total primary energy su… Prod…
#>  8 OAMR    PCM    E          Final     Supply     Total primary energy su… Prod…
#>  9 OAMR    PCM    E          Final     Supply     Total primary energy su… Prod…
#> 10 OAMR    PCM    E          Final     Supply     Total primary energy su… Prod…
#> # ℹ 110 more rows
#> # ℹ 4 more variables: Product <chr>, Unit <chr>, Year <dbl>, Edot <dbl>
…
