Fixed Ghana Primary solid biofuels data — Fixed_GHA_PSB • IEATools
…
    Usage

Fixed_GHA_PSB

    Format

    A data frame with 11 columns.

    Examples

Fixed_GHA_PSB
#> # A tibble: 36 × 11
#>    Country Method EnergyType LastStage LedgerSide FlowAggregationPoint     Flow 
#>    <chr>   <chr>  <chr>      <chr>     <chr>      <chr>                    <chr>
#>  1 GHA     PCM    E          Final     Supply     Total primary energy su… Prod…
#>  2 GHA     PCM    E          Final     Supply     Total primary energy su… Prod…
#>  3 GHA     PCM    E          Final     Supply     Total primary energy su… Prod…
#>  4 GHA     PCM    E          Final     Supply     Total primary energy su… Prod…
#>  5 GHA     PCM    E          Final     Supply     Total primary energy su… Prod…
#>  6 GHA     PCM    E          Final     Supply     Total primary energy su… Prod…
#>  7 GHA     PCM    E          Final     Supply     Total primary energy su… Prod…
#>  8 GHA     PCM    E          Final     Supply     Total primary energy su… Prod…
#>  9 GHA     PCM    E          Final     Supply     Total primary energy su… Prod…
#> 10 GHA     PCM    E          Final     Supply     Transformation processes Char…
#> # ℹ 26 more rows
#> # ℹ 4 more variables: Product <chr>, Unit <chr>, Year <dbl>, Edot <dbl>
…
