Create a template for analysis of final-to-useful transformation processes — fu_allocation_template • IEATools
…
    Value

    a data frame containing the EIOU template

    Details

    Non-energy use is removed from .tidy_iea_df before creating the template.

    Examples

load_tidy_iea_df() %>% 
  specify_all() %>% 
  fu_allocation_template()
#> # A tibble: 906 × 15
#>    Country Method EnergyType LastStage LedgerSide FlowAggregationPoint    Unit 
#>    <chr>   <chr>  <chr>      <chr>     <chr>      <chr>                   <chr>
#>  1 GHA     PCM    E          Final     Supply     Energy industry own use TJ   
#>  2 GHA     PCM    E          Final     Supply     Energy industry own use TJ   
#>  3 GHA     PCM    E          Final     Supply     Energy industry own use TJ   
#>  4 GHA     PCM    E          Final     Supply     Energy industry own use TJ   
#>  5 GHA     PCM    E          Final     Supply     Energy industry own use TJ   
#>  6 GHA     PCM    E          Final     Supply     Energy industry own use TJ   
#>  7 GHA     PCM    E          Final     Supply     Energy industry own use TJ   
#>  8 GHA     PCM    E          Final     Supply     Energy industry own use TJ   
#>  9 GHA     PCM    E          Final     Supply     Energy industry own use TJ   
#> 10 GHA     PCM    E          Final     Supply     Energy industry own use TJ   
#> # ℹ 896 more rows
#> # ℹ 8 more variables: EfProduct <chr>, Machine <dbl>, EuProduct <dbl>,
#> #   Destination <chr>, Quantity <chr>, MaximumValues <dbl>, `1971` <dbl>,
#> #   `2000` <dbl>
…
