Specifies renewable electricity and heat — specify_renewable_plants • IEATools
…
    Details

    The primary energy use of hydro, geothermal, solar photovoltaic, solar thermal, oceanic, and wind power energy by main activity and autoproducer plants are used
to create new renewable industries that produce electricity and heat (heat only in the case of geothermal and solar thermal). The physical content method is used
to derive the electricity produced by renewable industries, except in the case of geothermal and solar thermal, for which the IEA uses other factors in its balances.
In the case of CHP plants (which can be relevant for geothermal and solar thermal), the output of the new renewable industry follows the same heat vs electricity
breakdown as the main industry from which it is derived.

    Examples

library(dplyr)
load_tidy_iea_df() %>% 
  specify_renewable_plants()
#> # A tibble: 403 × 11
#>    Country Method EnergyType LastStage  Year LedgerSide FlowAggregationPoint    
#>    <chr>   <chr>  <chr>      <chr>     <dbl> <chr>      <chr>                   
#>  1 GHA     PCM    E          Final      1971 Supply     Total primary energy su…
#>  2 GHA     PCM    E          Final      2000 Supply     Total primary energy su…
#>  3 GHA     PCM    E          Final      1971 Supply     Total primary energy su…
#>  4 GHA     PCM    E          Final      2000 Supply     Total primary energy su…
#>  5 GHA     PCM    E          Final      1971 Supply     Total primary energy su…
#>  6 GHA     PCM    E          Final      2000 Supply     Total primary energy su…
#>  7 GHA     PCM    E          Final      2000 Supply     Total primary energy su…
#>  8 GHA     PCM    E          Final      2000 Supply     Total primary energy su…
#>  9 GHA     PCM    E          Final      1971 Supply     Total primary energy su…
#> 10 GHA     PCM    E          Final      2000 Supply     Total primary energy su…
#> # ℹ 393 more rows
#> # ℹ 4 more variables: Flow <chr>, Product <chr>, Unit <chr>, Edot <dbl>
…
