Specifies distribution industries — specify_distribution_losses • IEATools
…
negzeropos
The name of a temporary column added to the data frame.
Default is ".negzeropos".

    Value

    The .tidy__iea_df to which distribution industries have been added.

    Examples

load_tidy_iea_df() %>% 
  specify_distribution_losses()
#> # A tibble: 403 × 11
#>    Country Method EnergyType LastStage  Year LedgerSide FlowAggregationPoint    
#>    <chr>   <chr>  <chr>      <chr>     <dbl> <chr>      <chr>                   
#>  1 GHA     PCM    E          Final      1971 Supply     Total primary energy su…
#>  2 GHA     PCM    E          Final      2000 Supply     Total primary energy su…
#>  3 GHA     PCM    E          Final      1971 Supply     Total primary energy su…
#>  4 GHA     PCM    E          Final      2000 Supply     Total primary energy su…
#>  5 GHA     PCM    E          Final      1971 Supply     Total primary energy su…
#>  6 GHA     PCM    E          Final      2000 Supply     Total primary energy su…
#>  7 GHA     PCM    E          Final      2000 Supply     Total primary energy su…
#>  8 GHA     PCM    E          Final      2000 Supply     Total primary energy su…
#>  9 GHA     PCM    E          Final      1971 Supply     Total primary energy su…
#> 10 GHA     PCM    E          Final      2000 Supply     Total primary energy su…
#> # ℹ 393 more rows
#> # ℹ 4 more variables: Flow <chr>, Product <chr>, Unit <chr>, Edot <dbl>
…
