Specify Non-energy use when possible — specify_non_energy_use • IEATools
…
    Examples

sample_iea_data_path() %>% 
  iea_df() %>%
  rename_iea_df_cols() %>% 
  clean_iea_whitespace() %>%
  augment_iea_df() %>%
  specify_non_energy_use()
#> # A tibble: 14,690 × 11
#>    Country Method Energy.type Last.stage Ledger.side Flow.aggregation.point     
#>    <chr>   <chr>  <chr>       <chr>      <chr>       <chr>                      
#>  1 Ghana   PCM    E           Final      Supply      Total primary energy supply
#>  2 Ghana   PCM    E           Final      Supply      Total primary energy supply
#>  3 Ghana   PCM    E           Final      Supply      Total primary energy supply
#>  4 Ghana   PCM    E           Final      Supply      Total primary energy supply
#>  5 Ghana   PCM    E           Final      Supply      Total primary energy supply
#>  6 Ghana   PCM    E           Final      Supply      Total primary energy supply
#>  7 Ghana   PCM    E           Final      Supply      Total primary energy supply
#>  8 Ghana   PCM    E           Final      Supply      Total primary energy supply
#>  9 Ghana   PCM    E           Final      Supply      Total primary energy supply
#> 10 Ghana   PCM    E           Final      Supply      Total primary energy supply
#> # ℹ 14,680 more rows
#> # ℹ 5 more variables: Flow <chr>, Product <chr>, Unit <chr>, `1971` <dbl>,
#> #   `2000` <dbl>
…
