IEATools • IEATools
…
Sorting

When manipulating IEA data frames, rows may attain different sorting
relative to the standard IEA order. The sort_iea_df()
function can return a data frame to IEA sort order.

  Tidy_IEA_df <- load_tidy_iea_df()
  Tidy_IEA_df %>% dplyr::select(Year, Flow, Product, Edot)
#> # A tibble: 403 × 4
#>     Year Flow       Product                             Edot
#>    <dbl> <chr>      <chr>                              <dbl>
#>  1  1971 Production Primary solid biofuels           87400. 
#>  2  2000 Production Primary solid biofuels          162909. 
#>  3  1971 Production Hydro                            10472. 
#>  4  2000 Production Hydro                            23792. 
#>  5  1971 Imports    Crude oil                        38360. 
#>  6  2000 Imports    Crude oil                        54769. 
#>  7  2000 Imports    Liquefied petroleum gases (LPG)   1655. 
#>  8  2000 Imports    Motor gasoline excl. biofuels    18010. 
#>  9  1971 Imports    Aviation gasoline                   44.8
#> 10  2000 Imports    Aviation gasoline                  224. 
#> # ℹ 393 more rows
  # Move the first row to the bottom to put everything out of order
  Unsorted <- Tidy_IEA_df[-1, ] %>% dplyr::bind_rows(Tidy_IEA_df[1, ])
  Unsorted %>% dplyr::select(Year, Flow, Product, Edot)
#> # A tibble: 403 × 4
#>     Year Flow       Product                                   Edot
#>    <dbl> <chr>      <chr>                                    <dbl>
#>  1  2000 Production Primary solid biofuels                162909. 
#>  2  1971 Production Hydro                                  10472. 
#>  3  2000 Production Hydro                                  23792. 
#>  4  1971 Imports    Crude oil                              38360. 
#>  5  2000 Imports    Crude oil                              54769. 
#>  6  2000 Imports    Liquefied petroleum gases (LPG)         1655. 
#>  7  2000 Imports    Motor gasoline excl. biofuels          18010. 
#>  8  1971 Imports    Aviation gasoline                         44.8
#>  9  2000 Imports    Aviation gasoline                        224. 
#> 10  1971 Imports    Kerosene type jet fuel excl. biofuels    892. 
#> # ℹ 393 more rows
  # Now sort it to put everything right again
  Sorted <- sort_iea_df(Unsorted)
  Sorted %>% dplyr::select(Year, Flow, Product, Edot)
#> # A tibble: 403 × 4
#>     Year Flow       Product                                  Edot
#>    <dbl> <chr>      <chr>                                   <dbl>
#>  1  1971 Production Primary solid biofuels                87400. 
#>  2  1971 Production Hydro                                 10472. 
#>  3  1971 Imports    Crude oil                             38360. 
#>  4  1971 Imports    Aviation gasoline                        44.8
#>  5  1971 Imports    Kerosene type jet fuel excl. biofuels   892. 
#>  6  1971 Imports    Other kerosene                           43.8
#>  7  1971 Imports    Lubricants                              756. 
#>  8  1971 Exports    Motor gasoline excl. biofuels          -179. 
#>  9  1971 Exports    Other kerosene                         -175. 
#> 10  1971 Exports    Fuel oil                              -7437. 
#> # ℹ 393 more rows

sort_iea_df() also works with wide data frames in which
years are spread to the right.

  # Pivoting the data results in unconventional ordering
  Unsorted_wide <- Tidy_IEA_df %>% tidyr::pivot_wider(names_from = Year, values_from = Edot)
  Unsorted_wide %>% dplyr::select(Flow, Product, `1971`, `2000`)
#> # A tibble: 294 × 4
#>    Flow       Product                                `1971`  `2000`
#>    <chr>      <chr>                                   <dbl>   <dbl>
#>  1 Production Primary solid biofuels                87400.  162909.
#>  2 Production Hydro                                 10472.   23792.
#>  3 Imports    Crude oil                             38360.   54769.
#>  4 Imports    Liquefied petroleum gases (LPG)          NA     1655.
#>  5 Imports    Motor gasoline excl. biofuels            NA    18010.
#>  6 Imports    Aviation gasoline                        44.8    224.
#>  7 Imports    Kerosene type jet fuel excl. biofuels   892.    1338.
#>  8 Imports    Other kerosene                           43.8     NA 
#>  9 Imports    Gas/diesel oil excl. biofuels            NA    17104.
#> 10 Imports    Lubricants                              756.    1218.
#> # ℹ 284 more rows
  # The wide data frame is not sorted correctly. Sort it.
  Sorted_wide <- sort_iea_df(Unsorted_wide)
  Sorted_wide %>% dplyr::select(Flow, Product, `1971`, `2000`)
#> # A tibble: 294 × 4
#>    Flow       Product                                `1971`  `2000`
#>    <chr>      <chr>                                   <dbl>   <dbl>
#>  1 Production Primary solid biofuels                87400.  162909.
#>  2 Production Hydro                                 10472.   23792.
#>  3 Imports    Crude oil                             38360.   54769.
#>  4 Imports    Liquefied petroleum gases (LPG)          NA     1655.
#>  5 Imports    Motor gasoline excl. biofuels            NA    18010.
#>  6 Imports    Aviation gasoline                        44.8    224.
#>  7 Imports    Kerosene type jet fuel excl. biofuels   892.    1338.
#>  8 Imports    Other kerosene                           43.8     NA 
#>  9 Imports    Gas/diesel oil excl. biofuels            NA    17104.
#> 10 Imports    Lubricants                              756.    1218.
#> # ℹ 284 more rows
…
