Adds a nuclear industry — add_nuclear_industry • IEATools
…
    Examples

library(dplyr)
#> 
#> Attaching package: ‘dplyr’
#> The following objects are masked from ‘package:stats’:
#> 
#>     filter, lag
#> The following objects are masked from ‘package:base’:
#> 
#>     intersect, setdiff, setequal, union
load_tidy_iea_df() %>% 
  add_nuclear_industry()
#> # A tibble: 404 × 11
#>    Country Method EnergyType LastStage  Year LedgerSide  FlowAggregationPoint
#>    <chr>   <chr>  <chr>      <chr>     <dbl> <chr>       <chr>               
#>  1 GHA     PCM    E          Final      1971 Consumption Industry            
#>  2 GHA     PCM    E          Final      1971 Consumption Industry            
#>  3 GHA     PCM    E          Final      1971 Consumption Industry            
#>  4 GHA     PCM    E          Final      1971 Consumption Industry            
#>  5 GHA     PCM    E          Final      1971 Consumption Industry            
#>  6 GHA     PCM    E          Final      1971 Consumption Industry            
#>  7 GHA     PCM    E          Final      1971 Consumption Industry            
#>  8 GHA     PCM    E          Final      1971 Consumption Non-energy use      
#>  9 GHA     PCM    E          Final      1971 Consumption Other               
#> 10 GHA     PCM    E          Final      1971 Consumption Other               
#> # ℹ 394 more rows
#> # ℹ 4 more variables: Flow <chr>, Product <chr>, Unit <chr>, Edot <dbl>
…
