Add products to production industry names — add_production_details • IEATools
…
    Value

    .iea_df with detailed production industries

    Details

    If the suffix of the value of the Flow column is already "(Product)",
no changes to the value in the Flow column will be made.

    Examples

load_tidy_iea_df() %>%
  add_production_details()
#> # A tibble: 399 x 11
#>    Method Last.stage Country Year  Ledger.side Flow.aggregatio… Energy.type
#>    <chr>  <chr>      <chr>   <chr> <chr>       <chr>            <chr>      
#>  1 PCM    Final      GH      1971  Supply      Total primary e… E          
#>  2 PCM    Final      GH      1971  Supply      Total primary e… E          
#>  3 PCM    Final      GH      1971  Supply      Total primary e… E          
#>  4 PCM    Final      GH      1971  Supply      Total primary e… E          
#>  5 PCM    Final      GH      1971  Supply      Total primary e… E          
#>  6 PCM    Final      GH      1971  Supply      Total primary e… E          
#>  7 PCM    Final      GH      1971  Supply      Total primary e… E          
#>  8 PCM    Final      GH      1971  Supply      Total primary e… E          
#>  9 PCM    Final      GH      1971  Supply      Total primary e… E          
#> 10 PCM    Final      GH      1971  Supply      Total primary e… E          
#> # … with 389 more rows, and 4 more variables: Unit <chr>, Flow <chr>,
#> #   Product <chr>, E.dot <dbl>
…
