Add row, column, row type, and column type metadata — add_row_col_meta • IEATools
…
    Details

    If .tidy_iea_df already contains all of rownames, colnames, rowtypes, and coltypes,
.tidy_iea_df is returned without modification.
If .tidy_iea_df contains some but not all of rownames, colnames, rowtypes, or coltypes,
an error is returned.

    Examples

library(dplyr)
load_tidy_iea_df() %>% 
  add_psut_matnames() %>%
  add_row_col_meta()

#> # A tibble: 402 × 16
#>    Country Method Energy.type Last.stage  Year Ledger.side Flow.aggregation.poi…
#>    <chr>   <chr>  <chr>       <chr>      <dbl> <chr>       <chr>                
#>  1 GHA     PCM    E           Final       1971 Supply      Total primary energy…
#>  2 GHA     PCM    E           Final       1971 Supply      Total primary energy…
#>  3 GHA     PCM    E           Final       1971 Supply      Total primary energy…
#>  4 GHA     PCM    E           Final       1971 Supply      Total primary energy…
#>  5 GHA     PCM    E           Final       1971 Supply      Total primary energy…
#>  6 GHA     PCM    E           Final       1971 Supply      Total primary energy…
#>  7 GHA     PCM    E           Final       1971 Supply      Total primary energy…
#>  8 GHA     PCM    E           Final       1971 Supply      Total primary energy…
#>  9 GHA     PCM    E           Final       1971 Supply      Total primary energy…
#> 10 GHA     PCM    E           Final       1971 Supply      Total primary energy…
#> # … with 392 more rows, and 9 more variables: Flow <chr>, Product <chr>,
#> #   Unit <chr>, E.dot <dbl>, matnames <chr>, rownames <chr>, colnames <chr>,
#> #   rowtypes <chr>, coltypes <chr>
…
