Arrange the rows and/or columns of a final-to-useful allocation template — arrange_iea_fu_allocation_template • IEATools
…
useful energy product (Eu.product),

destination where the useful energy now flows,

years (in columns), and

allocations (C_x rows).

    Examples

Template <- load_tidy_iea_df() %>% 
  specify_all() %>%
  fu_allocation_template()
Template
#> # A tibble: 906 × 15
#>    Country Method Energy.type Last.stage Ledger.side Flow.aggregation.point 
#>    <chr>   <chr>  <chr>       <chr>      <chr>       <chr>                  
#>  1 GHA     PCM    E           Final      Supply      Energy industry own use
#>  2 GHA     PCM    E           Final      Supply      Energy industry own use
#>  3 GHA     PCM    E           Final      Supply      Energy industry own use
#>  4 GHA     PCM    E           Final      Supply      Energy industry own use
#>  5 GHA     PCM    E           Final      Supply      Energy industry own use
#>  6 GHA     PCM    E           Final      Supply      Energy industry own use
#>  7 GHA     PCM    E           Final      Supply      Energy industry own use
#>  8 GHA     PCM    E           Final      Supply      Energy industry own use
#>  9 GHA     PCM    E           Final      Supply      Energy industry own use
#> 10 GHA     PCM    E           Final      Supply      Energy industry own use
#> # ℹ 896 more rows
#> # ℹ 9 more variables: Unit <chr>, Ef.product <chr>, Machine <dbl>,
#> #   Eu.product <dbl>, Destination <chr>, Quantity <chr>, Maximum.values <dbl>,
#> #   `1971` <dbl>, `2000` <dbl>
Template %>% 
  arrange_iea_fu_allocation_template()
#> # A tibble: 906 × 15
#>    Country Method Energy.type Last.stage Ledger.side Flow.aggregation.point 
#>    <chr>   <chr>  <chr>       <chr>      <chr>       <chr>                  
#>  1 GHA     PCM    E           Final      Supply      Energy industry own use
#>  2 GHA     PCM    E           Final      Supply      Energy industry own use
#>  3 GHA     PCM    E           Final      Supply      Energy industry own use
#>  4 GHA     PCM    E           Final      Supply      Energy industry own use
#>  5 GHA     PCM    E           Final      Supply      Energy industry own use
#>  6 GHA     PCM    E           Final      Supply      Energy industry own use
#>  7 GHA     PCM    E           Final      Supply      Energy industry own use
#>  8 GHA     PCM    E           Final      Supply      Energy industry own use
#>  9 GHA     PCM    E           Final      Supply      Energy industry own use
#> 10 GHA     PCM    E           Final      Supply      Energy industry own use
#> # ℹ 896 more rows
#> # ℹ 9 more variables: Unit <chr>, Ef.product <chr>, Machine <dbl>,
#> #   Eu.product <dbl>, Destination <chr>, Quantity <chr>, Maximum.values <dbl>,
#> #   `1971` <dbl>, `2000` <dbl>
…
