Final-to-useful efficiency template — eta_fu_template • IEATools
…
Note that the rows labeled "C_x [%]" are formatted by default as percentage in the Excel file.
When read, values are ratios, not percentages.
I.e., the values read by this function are in the range 0 <= x <= 1, not 0 <= x <= 100.
If any read values in the c_perc rows are outside of the range 0 <= x <= 1, an error is thrown.

Note that if .fu_allocations is void of any allocation information, an error is thrown.

    Examples

load_fu_allocation_data() %>% 
  eta_fu_template()
#> # A tibble: 276 × 11
#>    Country Method EnergyType LastStage Unit  Machine       EuProduct Quantity   
#>    <chr>   <chr>  <chr>      <chr>     <chr> <chr>         <chr>     <chr>      
#>  1 GHA     PCM    E          Final     ktoe  Automobiles   MD        Edot_machi…
#>  2 GHA     PCM    E          Final     ktoe  Automobiles   MD        Edot_machi…
#>  3 GHA     PCM    E          Final     ktoe  Automobiles   MD        etafu      
#>  4 GHA     PCM    E          Final     ktoe  Automobiles   MD        phiu       
#>  5 GHA     PCM    E          Final     ktoe  Diesel cars   MD        Edot_machi…
#>  6 GHA     PCM    E          Final     ktoe  Diesel cars   MD        Edot_machi…
#>  7 GHA     PCM    E          Final     ktoe  Diesel cars   MD        etafu      
#>  8 GHA     PCM    E          Final     ktoe  Diesel cars   MD        phiu       
#>  9 GHA     PCM    E          Final     ktoe  Diesel trucks MD        Edot_machi…
#> 10 GHA     PCM    E          Final     ktoe  Diesel trucks MD        Edot_machi…
#> # ℹ 266 more rows
#> # ℹ 3 more variables: MaximumValues <dbl>, `1971` <dbl>, `2000` <dbl>
…
