Improve IEA Ghana Industry Electricity data from 1974 through 2017 — fix_GHA_industry_electricity • IEATools
…
    See the Supplemental information to
M. K. Heun and P. E. Brockway.
Meeting 2030 primary energy and economic growth goals: Mission impossible?
Applied Energy, 251(112697):1–24, May 2019
for additional details.

Also see the file named "GHA-IndustryElectricity.xlsx" for the actual calculations.

    Examples

library(dplyr)
example_tidy_iea_df <- load_tidy_iea_df() %>%
  filter(Country == "GHA")
example_tidy_iea_df
#> # A tibble: 122 x 11
#>    Country Method Energy.type Last.stage  Year Ledger.side Flow.aggregatio…
#>    <chr>   <chr>  <chr>       <chr>      <dbl> <chr>       <chr>           
#>  1 GHA     PCM    E           Final       1971 Supply      Total primary e…
#>  2 GHA     PCM    E           Final       1971 Supply      Total primary e…
#>  3 GHA     PCM    E           Final       1971 Supply      Total primary e…
#>  4 GHA     PCM    E           Final       1971 Supply      Total primary e…
#>  5 GHA     PCM    E           Final       1971 Supply      Total primary e…
#>  6 GHA     PCM    E           Final       1971 Supply      Total primary e…
#>  7 GHA     PCM    E           Final       1971 Supply      Total primary e…
#>  8 GHA     PCM    E           Final       1971 Supply      Total primary e…
#>  9 GHA     PCM    E           Final       1971 Supply      Total primary e…
#> 10 GHA     PCM    E           Final       1971 Supply      Total primary e…
#> # … with 112 more rows, and 4 more variables: Flow <chr>, Product <chr>,
#> #   Unit <chr>, E.dot <dbl>
…
