Fix IEA energy balances — fix_tidy_iea_df_balances • IEATools
…
library(dplyr)
# Balances are calculated for each group.
# Remember that grouping should _not_ be done on
# the `flow_aggregation_point`, `Flow`, or `ledger_side` columns.
grouped_iea_df <- load_tidy_iea_df() %>% 
  group_by(Country, Method, EnergyType, LastStage, Year, Product)
# unbalanced will not be balanced, because the IEA data are not in perfect balance.
# Because we have grouped by key variables, 
# `calc_tidy_iea_df_balances` provides energy balances 
# on a per-product basis.
# The `err` column shows the magnitude of the imbalances.
unbalanced <- grouped_iea_df %>% 
  calc_tidy_iea_df_balances()
unbalanced
#> # A tibble: 78 × 12
#>    Country Method EnergyType LastStage  Year Product            Unit  supply_sum
#>    <chr>   <chr>  <chr>      <chr>     <dbl> <chr>              <chr>      <dbl>
#>  1 GHA     PCM    E          Final      1971 Aviation gasoline  TJ       0      
#>  2 GHA     PCM    E          Final      1971 Charcoal           TJ       4.99e+3
#>  3 GHA     PCM    E          Final      1971 Crude oil          TJ      -1.00e-4
#>  4 GHA     PCM    E          Final      1971 Electricity        TJ       9.85e+3
#>  5 GHA     PCM    E          Final      1971 Fuel oil           TJ       3.98e+3
#>  6 GHA     PCM    E          Final      1971 Gas/diesel oil ex… TJ       9.14e+3
#>  7 GHA     PCM    E          Final      1971 Hydro              TJ       0      
#>  8 GHA     PCM    E          Final      1971 Kerosene type jet… TJ       0      
#>  9 GHA     PCM    E          Final      1971 Liquefied petrole… TJ       1.42e+2
#> 10 GHA     PCM    E          Final      1971 Lubricants         TJ       7.56e+2
#> # ℹ 68 more rows
#> # ℹ 4 more variables: consumption_sum <dbl>, supply_minus_consumption <dbl>,
#> #   balance_OK <lgl>, err <dbl>
# The `tidy_iea_df_balanced` function returns `TRUE` if and only if `all` of the groups (rows) 
# in `unbalanced` are balanced.
unbalanced %>% 
  tidy_iea_df_balanced()
#> [1] FALSE
# Fix the imbalances.
balanced <- grouped_iea_df %>% 
  fix_tidy_iea_df_balances() %>% 
  calc_tidy_iea_df_balances()
balanced
#> # A tibble: 78 × 12
#>    Country Method EnergyType LastStage  Year Product            Unit  supply_sum
#>    <chr>   <chr>  <chr>      <chr>     <dbl> <chr>              <chr>      <dbl>
#>  1 GHA     PCM    E          Final      1971 Aviation gasoline  TJ            0 
#>  2 GHA     PCM    E          Final      1971 Charcoal           TJ         4990.
#>  3 GHA     PCM    E          Final      1971 Crude oil          TJ            0 
#>  4 GHA     PCM    E          Final      1971 Electricity        TJ         9846.
#>  5 GHA     PCM    E          Final      1971 Fuel oil           TJ         3980.
#>  6 GHA     PCM    E          Final      1971 Gas/diesel oil ex… TJ         9136.
#>  7 GHA     PCM    E          Final      1971 Hydro              TJ            0 
#>  8 GHA     PCM    E          Final      1971 Kerosene type jet… TJ            0 
#>  9 GHA     PCM    E          Final      1971 Liquefied petrole… TJ          142.
#> 10 GHA     PCM    E          Final      1971 Lubricants         TJ          756.
#> # ℹ 68 more rows
#> # ℹ 4 more variables: consumption_sum <dbl>, supply_minus_consumption <dbl>,
#> #   balance_OK <lgl>, err <dbl>
…
