Create a template for analysis of final-to-useful transformation processes — fu_allocation_template • IEATools
…
    Value

    a data frame containing the EIOU template

    Details

    Non-energy use is removed from .tidy_iea_df before creating the template.

    Examples

load_tidy_iea_df() %>%
  specify_all() %>%
  fu_allocation_template()
#> # A tibble: 900 x 15
#>    Country Method Energy.type Last.stage Ledger.side Flow.aggregatio… Unit 
#>    <chr>   <chr>  <chr>       <chr>      <chr>       <chr>            <chr>
#>  1 GHA     PCM    E           Final      Supply      Energy industry… ktoe 
#>  2 GHA     PCM    E           Final      Supply      Energy industry… ktoe 
#>  3 GHA     PCM    E           Final      Supply      Energy industry… ktoe 
#>  4 GHA     PCM    E           Final      Supply      Energy industry… ktoe 
#>  5 GHA     PCM    E           Final      Supply      Energy industry… ktoe 
#>  6 GHA     PCM    E           Final      Supply      Energy industry… ktoe 
#>  7 GHA     PCM    E           Final      Supply      Energy industry… ktoe 
#>  8 GHA     PCM    E           Final      Supply      Energy industry… ktoe 
#>  9 GHA     PCM    E           Final      Supply      Energy industry… ktoe 
#> 10 GHA     PCM    E           Final      Supply      Energy industry… ktoe 
#> # … with 890 more rows, and 8 more variables: Ef.product <chr>, Machine <dbl>,
#> #   Eu.product <dbl>, Destination <chr>, Quantity <chr>, Maximum.values <dbl>,
#> #   `1971` <dbl>, `2000` <dbl>
…
