Gather main activity producer and autoproducer industries — gather_producer_autoproducer • IEATools
…
    Autoproducer plants are those that consume in-situ the energy they produce.
For instance, an iron and steel plant that produces electricity
and directly consumes it would be classified as an autoproducer electricity plant.
Conversely, main activity producer plants are those that produce
a product, be it electricity, heat, or both (CHP plants) and sell it
to the market.

    Examples

library(dplyr)
load_tidy_iea_df() %>% 
  gather_producer_autoproducer()

#> # A tibble: 397 x 11
#>    Country Method Energy.type Last.stage  Year Ledger.side Flow.aggregation.poi…
#>    <chr>   <chr>  <chr>       <chr>      <dbl> <chr>       <chr>                
#>  1 GHA     PCM    E           Final       1971 Consumption Industry             
#>  2 GHA     PCM    E           Final       1971 Consumption Industry             
#>  3 GHA     PCM    E           Final       1971 Consumption Industry             
#>  4 GHA     PCM    E           Final       1971 Consumption Industry             
#>  5 GHA     PCM    E           Final       1971 Consumption Industry             
#>  6 GHA     PCM    E           Final       1971 Consumption Industry             
#>  7 GHA     PCM    E           Final       1971 Consumption Industry             
#>  8 GHA     PCM    E           Final       1971 Consumption Non-energy use       
#>  9 GHA     PCM    E           Final       1971 Consumption Other                
#> 10 GHA     PCM    E           Final       1971 Consumption Other                
#> # … with 387 more rows, and 4 more variables: Flow <chr>, Product <chr>,
#> #   Unit <chr>, E.dot <dbl>
…
