Route pumped storage to Main activity electricity producer plant — route_pumped_storage • IEATools
…
negzeropos
The name of a temporary column created in .tidy_iea_df.
Default is ".negzeropos".

    Value

    A modified .tidy_iea_df with "Pumped storage plants" industry routed
to the "Main activity producer electricity plant" industry.

    Examples

library(dplyr)
load_tidy_iea_df() %>% 
  gather_producer_autoproducer()
#> # A tibble: 398 × 11
#>    Country Method EnergyType LastStage  Year LedgerSide  FlowAggregationPoint
#>    <chr>   <chr>  <chr>      <chr>     <dbl> <chr>       <chr>               
#>  1 GHA     PCM    E          Final      1971 Consumption Industry            
#>  2 GHA     PCM    E          Final      1971 Consumption Industry            
#>  3 GHA     PCM    E          Final      1971 Consumption Industry            
#>  4 GHA     PCM    E          Final      1971 Consumption Industry            
#>  5 GHA     PCM    E          Final      1971 Consumption Industry            
#>  6 GHA     PCM    E          Final      1971 Consumption Industry            
#>  7 GHA     PCM    E          Final      1971 Consumption Industry            
#>  8 GHA     PCM    E          Final      1971 Consumption Non-energy use      
#>  9 GHA     PCM    E          Final      1971 Consumption Other               
#> 10 GHA     PCM    E          Final      1971 Consumption Other               
#> # ℹ 388 more rows
#> # ℹ 4 more variables: Flow <chr>, Product <chr>, Unit <chr>, Edot <dbl>
…
