Routes non-specified transformation processes flows to existing industries — route_non_specified_tp • IEATools
…
      destination_flow
      The name of a temporary column added to the data frame.
Default is ".destination_flow".

    Value

    A modified version of the .tidy_iea_df with non-specified transformation processes flows routes to existing industries.

    Examples

library(dplyr)
load_tidy_iea_df() %>% 
  route_non_specified_tp()

#> # A tibble: 402 × 11
#>    Country Method Energy.type Last.stage  Year Ledger.side Flow.aggregation.poi…
#>    <chr>   <chr>  <chr>       <chr>      <dbl> <chr>       <chr>                
#>  1 GHA     PCM    E           Final       1971 Consumption Industry             
#>  2 GHA     PCM    E           Final       1971 Consumption Industry             
#>  3 GHA     PCM    E           Final       1971 Consumption Industry             
#>  4 GHA     PCM    E           Final       1971 Consumption Industry             
#>  5 GHA     PCM    E           Final       1971 Consumption Industry             
#>  6 GHA     PCM    E           Final       1971 Consumption Industry             
#>  7 GHA     PCM    E           Final       1971 Consumption Industry             
#>  8 GHA     PCM    E           Final       1971 Consumption Non-energy use       
#>  9 GHA     PCM    E           Final       1971 Consumption Other                
#> 10 GHA     PCM    E           Final       1971 Consumption Other                
#> # … with 392 more rows, and 4 more variables: Flow <chr>, Product <chr>,
#> #   Unit <chr>, E.dot <dbl>
…
