Routes own use in electricity, chp, and heat plants EIOU flow to main activity producer flows — route_own_use_elect_chp_heat • IEATools
…
The method is selected using the split_using_shares_of argument,
to which either the have the "input" or "output" value can be passed.

When none of the main activity producer industries is present in the data frame,
the "Own use in electricity, CHP and heat plants" flow is ascribed by default to the
"Main activity producer electricity plant".

    Examples

library(dplyr)
load_tidy_iea_df() %>% 
  route_own_use_elect_chp_heat()
#> # A tibble: 403 × 11
#>    Country Method EnergyType LastStage  Year LedgerSide  FlowAggregationPoint
#>    <chr>   <chr>  <chr>      <chr>     <dbl> <chr>       <chr>               
#>  1 GHA     PCM    E          Final      1971 Consumption Industry            
#>  2 GHA     PCM    E          Final      1971 Consumption Industry            
#>  3 GHA     PCM    E          Final      1971 Consumption Industry            
#>  4 GHA     PCM    E          Final      1971 Consumption Industry            
#>  5 GHA     PCM    E          Final      1971 Consumption Industry            
#>  6 GHA     PCM    E          Final      1971 Consumption Industry            
#>  7 GHA     PCM    E          Final      1971 Consumption Industry            
#>  8 GHA     PCM    E          Final      1971 Consumption Non-energy use      
#>  9 GHA     PCM    E          Final      1971 Consumption Other               
#> 10 GHA     PCM    E          Final      1971 Consumption Other               
#> # ℹ 393 more rows
#> # ℹ 4 more variables: Flow <chr>, Product <chr>, Unit <chr>, Edot <dbl>
…
