Specify primary production industries — specify_primary_production • IEATools
…
Users can specify other changes by adjusting the default argument values.

Be sure to call this function after calling augment_iea_df() or
load_tidy_iea_df().

    Examples

library(dplyr)
load_tidy_iea_df() %>% 
  specify_primary_production() %>% 
  add_psut_matnames() %>% 
  dplyr::filter(Flow == "Coal mines" | stringr::str_detect(Flow, "Resources")) %>% 
  select(-Method, -LastStage, -LedgerSide, -Unit)
#> # A tibble: 23 × 8
#>    Country EnergyType  Year FlowAggregationPoint  Flow  Product    Edot matnames
#>    <chr>   <chr>      <dbl> <chr>                 <chr> <chr>     <dbl> <chr>   
#>  1 GHA     E           1971 Total primary energy… Reso… Hydro …  1.05e4 R       
#>  2 GHA     E           1971 Total primary energy… Reso… Primar…  8.74e4 R       
#>  3 GHA     E           2000 Total primary energy… Reso… Hydro …  2.38e4 R       
#>  4 GHA     E           2000 Total primary energy… Reso… Primar…  1.63e5 R       
#>  5 ZAF     E           1971 Energy industry own … Coal… Electr… -2.19e3 U_EIOU  
#>  6 ZAF     E           1971 Total primary energy… Reso… Hard c…  1.38e6 R       
#>  7 ZAF     E           1971 Total primary energy… Reso… Hydro …  4.03e2 R       
#>  8 ZAF     E           1971 Total primary energy… Reso… Primar…  1.97e5 R       
#>  9 ZAF     E           1971 Transformation proce… Coal… Hard c…  1.38e6 V       
#> 10 ZAF     E           1971 Transformation proce… Coal… Hard c… -1.38e6 U_feed  
#> # ℹ 13 more rows
…
