Specify all industries — specify_all • IEATools
…
    An enhanced and corrected version of .tidy_iea_df
That is ready for physical supply-use table (PSUT) analysis.

    Details

    Each bundled function is called in turn using default arguments.
See examples for two ways to achieve the same result.

    Examples

# Simple
load_tidy_iea_df() %>% 
  specify_all()
#> # A tibble: 429 × 11
#>    Country Method EnergyType LastStage  Year LedgerSide  FlowAggregationPoint
#>    <chr>   <chr>  <chr>      <chr>     <dbl> <chr>       <chr>               
#>  1 GHA     PCM    E          Final      1971 Consumption Industry            
#>  2 GHA     PCM    E          Final      1971 Consumption Industry            
#>  3 GHA     PCM    E          Final      1971 Consumption Industry            
#>  4 GHA     PCM    E          Final      1971 Consumption Industry            
#>  5 GHA     PCM    E          Final      1971 Consumption Industry            
#>  6 GHA     PCM    E          Final      1971 Consumption Industry            
#>  7 GHA     PCM    E          Final      1971 Consumption Industry            
#>  8 GHA     PCM    E          Final      1971 Consumption Other               
#>  9 GHA     PCM    E          Final      1971 Consumption Other               
#> 10 GHA     PCM    E          Final      1971 Consumption Other               
#> # ℹ 419 more rows
#> # ℹ 4 more variables: Flow <chr>, Product <chr>, Unit <chr>, Edot <dbl>
# Complicated
load_tidy_iea_df() %>% 
  specify_primary_production() %>% 
  specify_tp_eiou() %>% 
  specify_bunkers() %>% 
  specify_interface_industries() %>% 
  tp_sinks_to_nonenergy()
#> # A tibble: 429 × 11
#>    Country Method EnergyType LastStage  Year LedgerSide  FlowAggregationPoint
#>    <chr>   <chr>  <chr>      <chr>     <dbl> <chr>       <chr>               
#>  1 GHA     PCM    E          Final      1971 Consumption Industry            
#>  2 GHA     PCM    E          Final      1971 Consumption Industry            
#>  3 GHA     PCM    E          Final      1971 Consumption Industry            
#>  4 GHA     PCM    E          Final      1971 Consumption Industry            
#>  5 GHA     PCM    E          Final      1971 Consumption Industry            
#>  6 GHA     PCM    E          Final      1971 Consumption Industry            
#>  7 GHA     PCM    E          Final      1971 Consumption Industry            
#>  8 GHA     PCM    E          Final      1971 Consumption Other               
#>  9 GHA     PCM    E          Final      1971 Consumption Other               
#> 10 GHA     PCM    E          Final      1971 Consumption Other               
#> # ℹ 419 more rows
#> # ℹ 4 more variables: Flow <chr>, Product <chr>, Unit <chr>, Edot <dbl>
…
