Convert Production Flows to Resource Flows — specify_production_to_resources • IEATools
…
    Details

    This function should be called after specify_primary_production(),
which adjusts for energy industry own use
of some primary energy producing industries.
If this function is called first,
EIOU will not be accounted correctly.

    Examples

load_tidy_iea_df() %>% 
  specify_primary_production() %>% 
  specify_production_to_resources()
#> # A tibble: 433 × 11
#>    Country Method EnergyType LastStage  Year LedgerSide  FlowAggregationPoint
#>    <chr>   <chr>  <chr>      <chr>     <dbl> <chr>       <chr>               
#>  1 GHA     PCM    E          Final      1971 Consumption Industry            
#>  2 GHA     PCM    E          Final      1971 Consumption Industry            
#>  3 GHA     PCM    E          Final      1971 Consumption Industry            
#>  4 GHA     PCM    E          Final      1971 Consumption Industry            
#>  5 GHA     PCM    E          Final      1971 Consumption Industry            
#>  6 GHA     PCM    E          Final      1971 Consumption Industry            
#>  7 GHA     PCM    E          Final      1971 Consumption Industry            
#>  8 GHA     PCM    E          Final      1971 Consumption Non-energy use      
#>  9 GHA     PCM    E          Final      1971 Consumption Other               
#> 10 GHA     PCM    E          Final      1971 Consumption Other               
#> # ℹ 423 more rows
#> # ℹ 4 more variables: Flow <chr>, Product <chr>, Unit <chr>, Edot <dbl>
…
