Specify interface industries — specify_interface_industries • IEATools
…
    Details

    Note that "Production" also needs to be specified,
but that is accomplished in the specify_primary_production() and
specify_production_to_resources() functions.

Resource flows and manufacture flows are included by default,
because they need a place where they are specified, too.

    Examples

load_tidy_iea_df() %>% 
  specify_interface_industries()
#> # A tibble: 403 × 11
#>    Country Method EnergyType LastStage  Year LedgerSide FlowAggregationPoint    
#>    <chr>   <chr>  <chr>      <chr>     <dbl> <chr>      <chr>                   
#>  1 GHA     PCM    E          Final      1971 Supply     Total primary energy su…
#>  2 GHA     PCM    E          Final      2000 Supply     Total primary energy su…
#>  3 GHA     PCM    E          Final      1971 Supply     Total primary energy su…
#>  4 GHA     PCM    E          Final      2000 Supply     Total primary energy su…
#>  5 GHA     PCM    E          Final      2000 Supply     TFC compare             
#>  6 GHA     PCM    E          Final      2000 Supply     TFC compare             
#>  7 GHA     PCM    E          Final      1971 Supply     TFC compare             
#>  8 GHA     PCM    E          Final      2000 Supply     TFC compare             
#>  9 GHA     PCM    E          Final      2000 Supply     TFC compare             
#> 10 GHA     PCM    E          Final      2000 Supply     Transformation processes
#> # ℹ 393 more rows
#> # ℹ 4 more variables: Flow <chr>, Product <chr>, Unit <chr>, Edot <dbl>
…
