Separates EIOU flows of oil and gas extraction — split_oil_gas_extraction_eiou • IEATools
…
.share
The name of a temporary column that is added to the data frame.
Default is ".share".

    Value

    A .tidy_iea_df with "Oil and gas extraction" EIOU flows split into 'Oil extraction"
and "Natural gas extraction" EIOU flows.

    Examples

library(dplyr)
load_tidy_iea_df() %>% 
  split_oil_gas_extraction_eiou()
#> # A tibble: 403 × 11
#>    Country Method EnergyType LastStage  Year LedgerSide FlowAggregationPoint    
#>    <chr>   <chr>  <chr>      <chr>     <dbl> <chr>      <chr>                   
#>  1 GHA     PCM    E          Final      1971 Supply     Total primary energy su…
#>  2 GHA     PCM    E          Final      2000 Supply     Total primary energy su…
#>  3 GHA     PCM    E          Final      1971 Supply     Total primary energy su…
#>  4 GHA     PCM    E          Final      2000 Supply     Total primary energy su…
#>  5 GHA     PCM    E          Final      1971 Supply     Total primary energy su…
#>  6 GHA     PCM    E          Final      2000 Supply     Total primary energy su…
#>  7 GHA     PCM    E          Final      2000 Supply     Total primary energy su…
#>  8 GHA     PCM    E          Final      2000 Supply     Total primary energy su…
#>  9 GHA     PCM    E          Final      1971 Supply     Total primary energy su…
#> 10 GHA     PCM    E          Final      2000 Supply     Total primary energy su…
#> # ℹ 393 more rows
#> # ℹ 4 more variables: Flow <chr>, Product <chr>, Unit <chr>, Edot <dbl>
…
