Tidy a final-to-useful allocation table — tidy_fu_allocation_table • IEATools
…
    Value

    A tidy version of .fu_allocation_table.

    Details

    If .fu_allocation_table is already tidy, it is returned unmodified.

    Examples

load_fu_allocation_data() %>% 
  tidy_fu_allocation_table()
#> # A tibble: 268 × 13
#>    Country Method EnergyType LastStage LedgerSide FlowAggregationPoint EfProduct
#>    <chr>   <chr>  <chr>      <chr>     <chr>      <chr>                <chr>    
#>  1 GHA     PCM    E          Final     Supply     Energy industry own… Refinery…
#>  2 GHA     PCM    E          Final     Supply     Energy industry own… Refinery…
#>  3 GHA     PCM    E          Final     Supply     Energy industry own… Electric…
#>  4 GHA     PCM    E          Final     Supply     Energy industry own… Electric…
#>  5 GHA     PCM    E          Final     Supply     Energy industry own… Electric…
#>  6 GHA     PCM    E          Final     Supply     Energy industry own… Electric…
#>  7 GHA     PCM    E          Final     Consumpti… Industry             Electric…
#>  8 GHA     PCM    E          Final     Consumpti… Industry             Electric…
#>  9 GHA     PCM    E          Final     Consumpti… Industry             Electric…
#> 10 GHA     PCM    E          Final     Consumpti… Industry             Electric…
#> # ℹ 258 more rows
#> # ℹ 6 more variables: Machine <chr>, EuProduct <chr>, Destination <chr>,
#> #   Quantity <chr>, Year <dbl>, Value <dbl>
…
