Tidy a final-to-useful efficiency table — tidy_eta_fu_table • IEATools
…
    Value

    A tidy version of .eta_fu_table.

    Details

    If .eta_fu_table is already tidy, it is returned unmodified.

    Examples

load_eta_fu_data() %>% 
  tidy_eta_fu_table()
#> # A tibble: 234 × 9
#>    Country Method EnergyType LastStage Machine    EuProduct Quantity  Year Value
#>    <chr>   <chr>  <chr>      <chr>     <chr>      <chr>     <chr>    <dbl> <dbl>
#>  1 GHA     PCM    E          Final     Automobil… MD        etafu     1971  0.3 
#>  2 GHA     PCM    E          Final     Automobil… MD        etafu     2000  0.31
#>  3 GHA     PCM    E          Final     Automobil… MD        phiu      1971  1   
#>  4 GHA     PCM    E          Final     Automobil… MD        phiu      2000  1   
#>  5 GHA     PCM    E          Final     Diesel ca… MD        etafu     1971  0.3 
#>  6 GHA     PCM    E          Final     Diesel ca… MD        etafu     2000  0.3 
#>  7 GHA     PCM    E          Final     Diesel ca… MD        phiu      1971  1   
#>  8 GHA     PCM    E          Final     Diesel ca… MD        phiu      2000  1   
#>  9 GHA     PCM    E          Final     Diesel tr… MD        etafu     1971  0.3 
#> 10 GHA     PCM    E          Final     Diesel tr… MD        etafu     2000  0.3 
#> # ℹ 224 more rows
…
