Creates a tidy IEA data frame — tidy_iea_df • IEATools
…
    Details

    Default argument values assume that rename_iea_df_cols() has been called on .iea_df.

    Examples

sample_iea_data_path() %>% 
  iea_df() %>%
  rename_iea_df_cols() %>% 
  remove_agg_memo_flows() %>% 
  use_iso_countries() %>% 
  augment_iea_df() %>% 
  tidy_iea_df()
#> # A tibble: 403 × 11
#>    Country Method EnergyType LastStage  Year LedgerSide FlowAggregationPoint    
#>    <chr>   <chr>  <chr>      <chr>     <dbl> <chr>      <chr>                   
#>  1 GHA     PCM    E          Final      1971 Supply     Total primary energy su…
#>  2 GHA     PCM    E          Final      2000 Supply     Total primary energy su…
#>  3 GHA     PCM    E          Final      1971 Supply     Total primary energy su…
#>  4 GHA     PCM    E          Final      2000 Supply     Total primary energy su…
#>  5 GHA     PCM    E          Final      1971 Supply     Total primary energy su…
#>  6 GHA     PCM    E          Final      2000 Supply     Total primary energy su…
#>  7 GHA     PCM    E          Final      2000 Supply     Total primary energy su…
#>  8 GHA     PCM    E          Final      2000 Supply     Total primary energy su…
#>  9 GHA     PCM    E          Final      1971 Supply     Total primary energy su…
#> 10 GHA     PCM    E          Final      2000 Supply     Total primary energy su…
#> # ℹ 393 more rows
#> # ℹ 4 more variables: Flow <chr>, Product <chr>, Unit <chr>, Edot <dbl>
…
